query_no Q0 403958 0 16.141796836892603 DirichletLM
query_no Q0 5020 1 11.462186383025243 DirichletLM
query_no Q0 106966 2 11.406166493868332 DirichletLM
query_no Q0 248412 3 11.090310162632145 DirichletLM
query_no Q0 169796 4 11.02484375327261 DirichletLM
query_no Q0 1663 5 10.8285285128043 DirichletLM
query_no Q0 94371 6 10.806268468247909 DirichletLM
query_no Q0 183916 7 10.120516393554345 DirichletLM
query_no Q0 126610 8 9.758332070042014 DirichletLM
query_no Q0 360753 9 9.746067444240392 DirichletLM
query_no Q0 362711 10 9.69036117146924 DirichletLM
query_no Q0 67132 11 9.68199395544183 DirichletLM
query_no Q0 353733 12 9.606337227144163 DirichletLM
query_no Q0 99875 13 9.578877527710528 DirichletLM
query_no Q0 407071 14 9.495275492225474 DirichletLM
query_no Q0 161390 15 9.484628290982261 DirichletLM
query_no Q0 131046 16 9.483109398135415 DirichletLM
query_no Q0 80943 17 9.443804128635922 DirichletLM
query_no Q0 642656 18 9.424284544259969 DirichletLM
query_no Q0 98103 19 9.412260769981803 DirichletLM
query_no Q0 188260 20 9.351491968284975 DirichletLM
query_no Q0 330911 21 9.341192253800346 DirichletLM
query_no Q0 296568 22 9.336785582668606 DirichletLM
query_no Q0 13054 23 9.333850292544117 DirichletLM
query_no Q0 683220 24 9.332383393657793 DirichletLM
query_no Q0 188395 25 9.285703222948177 DirichletLM
query_no Q0 137896 26 9.248142835953805 DirichletLM
query_no Q0 214525 27 9.24634747847528 DirichletLM
query_no Q0 113133 28 9.189567427940982 DirichletLM
query_no Q0 105156 29 9.17683859591255 DirichletLM
query_no Q0 14340 30 9.166922064977483 DirichletLM
query_no Q0 201663 31 9.15986961902619 DirichletLM
query_no Q0 60058 32 9.10246897499524 DirichletLM
query_no Q0 94018 33 9.089970084196185 DirichletLM
query_no Q0 38782 34 9.060945614071226 DirichletLM
query_no Q0 168745 35 9.051313883547586 DirichletLM
query_no Q0 351016 36 8.991257497243534 DirichletLM
query_no Q0 178607 37 8.97367187949017 DirichletLM
query_no Q0 550143 38 8.96423221353958 DirichletLM
query_no Q0 576672 39 8.848679684414149 DirichletLM
query_no Q0 403204 40 8.80864197374753 DirichletLM
query_no Q0 545068 41 8.762872270893087 DirichletLM
query_no Q0 668776 42 8.694006180634036 DirichletLM
query_no Q0 510486 43 8.632817076381965 DirichletLM
query_no Q0 219785 44 8.625936174674795 DirichletLM
query_no Q0 151633 45 8.599904365075867 DirichletLM
query_no Q0 374644 46 8.326974377324351 DirichletLM
query_no Q0 206971 47 8.259608124811773 DirichletLM
query_no Q0 206639 48 8.237497747793782 DirichletLM
query_no Q0 212515 49 8.001338660367788 DirichletLM
query_no Q0 255401 50 7.854030497759483 DirichletLM
query_no Q0 637983 51 7.452277584114902 DirichletLM
query_no Q0 360109 52 6.932072188055262 DirichletLM
query_no Q0 198126 53 6.864185324373021 DirichletLM
query_no Q0 94075 54 6.766902244399223 DirichletLM
query_no Q0 587551 55 6.766902244399223 DirichletLM
query_no Q0 356991 56 6.766902244399223 DirichletLM
query_no Q0 231142 57 6.766902244399223 DirichletLM
query_no Q0 10546 58 6.766902244399223 DirichletLM
query_no Q0 11127 59 6.766902244399223 DirichletLM
query_no Q0 501049 60 6.766902244399223 DirichletLM
query_no Q0 318715 61 6.766902244399223 DirichletLM
query_no Q0 466553 62 6.766902244399223 DirichletLM
query_no Q0 582682 63 6.766902244399223 DirichletLM
query_no Q0 651302 64 6.766902244399223 DirichletLM
query_no Q0 147149 65 6.7657574754567005 DirichletLM
query_no Q0 105243 66 6.7657574754567005 DirichletLM
query_no Q0 629030 67 6.7657574754567005 DirichletLM
query_no Q0 402925 68 6.7657574754567005 DirichletLM
query_no Q0 385573 69 6.7657574754567005 DirichletLM
query_no Q0 556509 70 6.7657574754567005 DirichletLM
query_no Q0 605223 71 6.7657574754567005 DirichletLM
query_no Q0 161987 72 6.7646131605173405 DirichletLM
query_no Q0 589606 73 6.7646131605173405 DirichletLM
query_no Q0 282200 74 6.763469299221179 DirichletLM
query_no Q0 244116 75 6.757756784819574 DirichletLM
query_no Q0 224018 76 6.757756784819574 DirichletLM
query_no Q0 196155 77 6.757756784819574 DirichletLM
query_no Q0 592108 78 6.754334696952411 DirichletLM
query_no Q0 468591 79 6.753194902317097 DirichletLM
query_no Q0 268162 80 6.753194902317097 DirichletLM
query_no Q0 583149 81 6.753194902317097 DirichletLM
query_no Q0 38929 82 6.753194902317097 DirichletLM
query_no Q0 184675 83 6.742956961067071 DirichletLM
query_no Q0 141441 84 6.739552370605069 DirichletLM
query_no Q0 77415 85 6.7384183992476645 DirichletLM
query_no Q0 106236 86 6.7384183992476645 DirichletLM
query_no Q0 141609 87 6.7384183992476645 DirichletLM
query_no Q0 142319 88 6.7384183992476645 DirichletLM
query_no Q0 141718 89 6.7384183992476645 DirichletLM
query_no Q0 87003 90 6.736151792625391 DirichletLM
query_no Q0 671391 91 6.7338869651293765 DirichletLM
query_no Q0 356117 92 6.707968426517885 DirichletLM
query_no Q0 368729 93 6.57197362274998 DirichletLM
query_no Q0 496310 94 6.414143586697914 DirichletLM
query_no Q0 49245 95 6.3095661196668305 DirichletLM
query_no Q0 550867 96 6.177218899926559 DirichletLM
query_no Q0 534374 97 6.030823701955272 DirichletLM
query_no Q0 35483 98 6.030823701955272 DirichletLM
query_no Q0 65603 99 5.964572788485627 DirichletLM
query_no Q0 42924 100 5.895103999982615 DirichletLM
query_no Q0 24294 101 5.886237512686077 DirichletLM
query_no Q0 7914 102 5.878967380418406 DirichletLM
query_no Q0 160868 103 5.850406449633042 DirichletLM
query_no Q0 65628 104 5.78274844924116 DirichletLM
query_no Q0 193388 105 5.782054572380976 DirichletLM
query_no Q0 456409 106 5.781495713167756 DirichletLM
query_no Q0 135103 107 5.781465816378858 DirichletLM
query_no Q0 127151 108 5.781465816378858 DirichletLM
query_no Q0 663420 109 5.7809156943356275 DirichletLM
query_no Q0 360177 110 5.775425980554549 DirichletLM
query_no Q0 107213 111 5.633934105909012 DirichletLM
query_no Q0 67783 112 5.551338541920127 DirichletLM
query_no Q0 529048 113 5.478247724402579 DirichletLM
query_no Q0 140291 114 5.477684281692474 DirichletLM
query_no Q0 346956 115 5.4771210589482955 DirichletLM
query_no Q0 464115 116 5.449138425896877 DirichletLM
query_no Q0 665777 117 5.432660787759404 DirichletLM
query_no Q0 147296 118 5.361383580896414 DirichletLM
query_no Q0 499929 119 5.342730770515465 DirichletLM
query_no Q0 432761 120 5.341883633959686 DirichletLM
query_no Q0 10920 121 5.339742342520575 DirichletLM
query_no Q0 262209 122 5.339742342520575 DirichletLM
query_no Q0 533752 123 5.336482541070375 DirichletLM
query_no Q0 445788 124 5.33042328017517 DirichletLM
query_no Q0 615378 125 5.327069473842895 DirichletLM
query_no Q0 276137 126 5.324344112840223 DirichletLM
query_no Q0 319661 127 5.304144082259409 DirichletLM
query_no Q0 297092 128 5.304144082259409 DirichletLM
query_no Q0 339131 129 5.301903872456056 DirichletLM
query_no Q0 339232 130 5.300784419451993 DirichletLM
query_no Q0 344818 131 5.300784419451993 DirichletLM
query_no Q0 549868 132 5.300412415837878 DirichletLM
query_no Q0 365561 133 5.287384751027463 DirichletLM
query_no Q0 268185 134 5.286270915815106 DirichletLM
query_no Q0 34413 135 5.2842112446887395 DirichletLM
query_no Q0 316010 136 5.282931987671896 DirichletLM
query_no Q0 296416 137 5.282931987671896 DirichletLM
query_no Q0 297160 138 5.282931987671896 DirichletLM
query_no Q0 319796 139 5.282931987671896 DirichletLM
query_no Q0 345413 140 5.281819869684809 DirichletLM
query_no Q0 365663 141 5.281819869684809 DirichletLM
query_no Q0 316051 142 5.27959691881848 DirichletLM
query_no Q0 297050 143 5.27959691881848 DirichletLM
query_no Q0 296566 144 5.27959691881848 DirichletLM
query_no Q0 297727 145 5.27959691881848 DirichletLM
query_no Q0 297140 146 5.27959691881848 DirichletLM
query_no Q0 267209 147 5.27959691881848 DirichletLM
query_no Q0 297863 148 5.27959691881848 DirichletLM
query_no Q0 298276 149 5.27959691881848 DirichletLM
query_no Q0 344937 150 5.27959691881848 DirichletLM
query_no Q0 315918 151 5.27959691881848 DirichletLM
query_no Q0 345054 152 5.27959691881848 DirichletLM
query_no Q0 344954 153 5.27959691881848 DirichletLM
query_no Q0 315895 154 5.278486085279533 DirichletLM
query_no Q0 351166 155 5.278486085279533 DirichletLM
query_no Q0 351051 156 5.278486085279533 DirichletLM
query_no Q0 365541 157 5.278486085279533 DirichletLM
query_no Q0 296390 158 5.278486085279533 DirichletLM
query_no Q0 328863 159 5.278486085279533 DirichletLM
query_no Q0 345135 160 5.277375679230894 DirichletLM
query_no Q0 345924 161 5.277375679230894 DirichletLM
query_no Q0 345541 162 5.277375679230894 DirichletLM
query_no Q0 345973 163 5.277375679230894 DirichletLM
query_no Q0 346583 164 5.277375679230894 DirichletLM
query_no Q0 345438 165 5.277375679230894 DirichletLM
query_no Q0 346084 166 5.277375679230894 DirichletLM
query_no Q0 346430 167 5.277375679230894 DirichletLM
query_no Q0 345072 168 5.277375679230894 DirichletLM
query_no Q0 267673 169 5.276265700343662 DirichletLM
query_no Q0 267169 170 5.275156148289313 DirichletLM
query_no Q0 211540 171 5.274564582668557 DirichletLM
query_no Q0 345950 172 5.274047022739704 DirichletLM
query_no Q0 345021 173 5.274047022739704 DirichletLM
query_no Q0 293420 174 5.270722201843554 DirichletLM
query_no Q0 272804 175 5.269614779039026 DirichletLM
query_no Q0 294110 176 5.269614779039026 DirichletLM
query_no Q0 294082 177 5.269614779039026 DirichletLM
query_no Q0 294205 178 5.269614779039026 DirichletLM
query_no Q0 267075 179 5.269614779039026 DirichletLM
query_no Q0 245392 180 5.268507781104183 DirichletLM
query_no Q0 293620 181 5.26740120771314 DirichletLM
query_no Q0 293523 182 5.26740120771314 DirichletLM
query_no Q0 294134 183 5.26740120771314 DirichletLM
query_no Q0 245375 184 5.26740120771314 DirichletLM
query_no Q0 159659 185 5.2651893332608015 DirichletLM
query_no Q0 346072 186 5.2651893332608015 DirichletLM
query_no Q0 249674 187 5.2651893332608015 DirichletLM
query_no Q0 249507 188 5.2651893332608015 DirichletLM
query_no Q0 67080 189 5.2651893332608015 DirichletLM
query_no Q0 339272 190 5.2651893332608015 DirichletLM
query_no Q0 451475 191 5.264084031549611 DirichletLM
query_no Q0 267093 192 5.2629791530824335 DirichletLM
query_no Q0 268294 193 5.2629791530824335 DirichletLM
query_no Q0 250097 194 5.260770664584428 DirichletLM
query_no Q0 245412 195 5.260770664584428 DirichletLM
query_no Q0 74660 196 5.255367360069641 DirichletLM
query_no Q0 180737 197 5.227844593159912 DirichletLM
query_no Q0 471878 198 5.225662823617941 DirichletLM
query_no Q0 180100 199 5.222393259436051 DirichletLM
query_no Q0 423420 200 5.222393259436051 DirichletLM
query_no Q0 400153 201 5.222393259436051 DirichletLM
query_no Q0 264300 202 5.208267804351512 DirichletLM
query_no Q0 209400 203 5.207947359689763 DirichletLM
query_no Q0 667127 204 5.20218101803763 DirichletLM
query_no Q0 100527 205 5.201771613806125 DirichletLM
query_no Q0 62593 206 5.184868916036774 DirichletLM
query_no Q0 291291 207 5.1834447704297455 DirichletLM
query_no Q0 262264 208 5.181636651104344 DirichletLM
query_no Q0 528344 209 5.1737788627087635 DirichletLM
query_no Q0 123072 210 5.172718400895559 DirichletLM
query_no Q0 98613 211 5.167370132298909 DirichletLM
query_no Q0 529425 212 5.16693355225867 DirichletLM
query_no Q0 406792 213 5.165233597523926 DirichletLM
query_no Q0 77542 214 5.157768159771266 DirichletLM
query_no Q0 18037 215 5.151384550791847 DirichletLM
query_no Q0 77564 216 5.1450150336759375 DirichletLM
query_no Q0 304595 217 5.138659546344768 DirichletLM
query_no Q0 46607 218 5.114512675116624 DirichletLM
query_no Q0 226056 219 5.112396725293287 DirichletLM
query_no Q0 362061 220 5.1027383316726675 DirichletLM
query_no Q0 359248 221 5.1027383316726675 DirichletLM
query_no Q0 229893 222 5.1027383316726675 DirichletLM
query_no Q0 83246 223 5.1027383316726675 DirichletLM
query_no Q0 201133 224 5.1027383316726675 DirichletLM
query_no Q0 433449 225 5.101014338190214 DirichletLM
query_no Q0 196260 226 5.100891453483037 DirichletLM
query_no Q0 63983 227 5.096703658725004 DirichletLM
query_no Q0 659577 228 5.096643658955386 DirichletLM
query_no Q0 70923 229 5.09471059610554 DirichletLM
query_no Q0 403865 230 5.09471059610554 DirichletLM
query_no Q0 288295 231 5.09471059610554 DirichletLM
query_no Q0 642261 232 5.09471059610554 DirichletLM
query_no Q0 649811 233 5.09471059610554 DirichletLM
query_no Q0 266774 234 5.086158733240735 DirichletLM
query_no Q0 505445 235 5.085376047682242 DirichletLM
query_no Q0 514503 236 5.085022305422313 DirichletLM
query_no Q0 367 237 5.0844544270284855 DirichletLM
query_no Q0 282180 238 5.0844544270284855 DirichletLM
query_no Q0 572538 239 5.0844544270284855 DirichletLM
query_no Q0 43256 240 5.083319340391735 DirichletLM
query_no Q0 634407 241 5.083319340391735 DirichletLM
query_no Q0 256299 242 5.083319340391735 DirichletLM
query_no Q0 503857 243 5.082752131797485 DirichletLM
query_no Q0 674239 244 5.081618383180483 DirichletLM
query_no Q0 275451 245 5.081051842807646 DirichletLM
query_no Q0 478159 246 5.081051842807646 DirichletLM
query_no Q0 586770 247 5.081051842807646 DirichletLM
query_no Q0 113872 248 5.079919429059639 DirichletLM
query_no Q0 481692 249 5.079919429059639 DirichletLM
query_no Q0 355497 250 5.0770922773791165 DirichletLM
query_no Q0 194209 251 5.0770922773791165 DirichletLM
query_no Q0 469600 252 5.0753986418401915 DirichletLM
query_no Q0 413331 253 5.073793078118671 DirichletLM
query_no Q0 375965 254 5.072758702742195 DirichletLM
query_no Q0 296439 255 5.06080315896384 DirichletLM
query_no Q0 319634 256 5.06080315896384 DirichletLM
query_no Q0 346154 257 5.059128527271586 DirichletLM
query_no Q0 346560 258 5.059128527271586 DirichletLM
query_no Q0 319688 259 5.059128527271586 DirichletLM
query_no Q0 294183 260 5.059128527271586 DirichletLM
query_no Q0 267188 261 5.059128527271586 DirichletLM
query_no Q0 297208 262 5.059128527271586 DirichletLM
query_no Q0 297302 263 5.059128527271586 DirichletLM
query_no Q0 297768 264 5.059128527271586 DirichletLM
query_no Q0 297786 265 5.059128527271586 DirichletLM
query_no Q0 297822 266 5.059128527271586 DirichletLM
query_no Q0 297905 267 5.059128527271586 DirichletLM
query_no Q0 346480 268 5.059128527271586 DirichletLM
query_no Q0 320223 269 5.059128527271586 DirichletLM
query_no Q0 319823 270 5.059128527271586 DirichletLM
query_no Q0 626483 271 5.058013185089333 DirichletLM
query_no Q0 346458 272 5.057455837181729 DirichletLM
query_no Q0 346030 273 5.057455837181729 DirichletLM
query_no Q0 149099 274 5.056898704507924 DirichletLM
query_no Q0 268200 275 5.0541162638365975 DirichletLM
query_no Q0 293396 276 5.0541162638365975 DirichletLM
query_no Q0 296471 277 5.0541162638365975 DirichletLM
query_no Q0 293489 278 5.053004788403433 DirichletLM
query_no Q0 316032 279 5.052449371633959 DirichletLM
query_no Q0 137075 280 5.05189416860964 DirichletLM
query_no Q0 168419 281 5.051122039414609 DirichletLM
query_no Q0 267656 282 5.05078440313885 DirichletLM
query_no Q0 615358 283 5.04856742991597 DirichletLM
query_no Q0 657683 284 5.045994278900701 DirichletLM
query_no Q0 517683 285 5.045994278900701 DirichletLM
query_no Q0 157812 286 5.035885526759511 DirichletLM
query_no Q0 41625 287 5.033482685327625 DirichletLM
query_no Q0 417029 288 5.033482685327625 DirichletLM
query_no Q0 21419 289 5.033482685327625 DirichletLM
query_no Q0 570384 290 5.033482685327625 DirichletLM
query_no Q0 41771 291 5.033482685327625 DirichletLM
query_no Q0 274502 292 5.031684840736806 DirichletLM
query_no Q0 613923 293 5.028961898108178 DirichletLM
query_no Q0 161418 294 5.028175245482443 DirichletLM
query_no Q0 393271 295 5.0276094303392584 DirichletLM
query_no Q0 437457 296 5.020491283796212 DirichletLM
query_no Q0 323446 297 5.014632977530915 DirichletLM
query_no Q0 658743 298 5.012470826446731 DirichletLM
query_no Q0 141715 299 5.0123777035275925 DirichletLM
query_no Q0 648686 300 5.009348340465202 DirichletLM
query_no Q0 24533 301 5.002267706913099 DirichletLM
query_no Q0 315317 302 4.993688963105304 DirichletLM
query_no Q0 406806 303 4.993198898771486 DirichletLM
query_no Q0 91323 304 4.991426135218052 DirichletLM
query_no Q0 185221 305 4.980149625855554 DirichletLM
query_no Q0 657352 306 4.96413748282379 DirichletLM
query_no Q0 153694 307 4.960188355779301 DirichletLM
query_no Q0 647309 308 4.958947366607071 DirichletLM
query_no Q0 661950 309 4.958199802921972 DirichletLM
query_no Q0 346974 310 4.952242353974682 DirichletLM
query_no Q0 657944 311 4.944750729317181 DirichletLM
query_no Q0 8684 312 4.942340525170759 DirichletLM
query_no Q0 140009 313 4.922436703404313 DirichletLM
query_no Q0 493803 314 4.921929337462426 DirichletLM
query_no Q0 82085 315 4.9201783654853415 DirichletLM
query_no Q0 461275 316 4.9195638023624495 DirichletLM
query_no Q0 523592 317 4.890163649058468 DirichletLM
query_no Q0 252721 318 4.890163649058468 DirichletLM
query_no Q0 603619 319 4.865228749982773 DirichletLM
query_no Q0 555486 320 4.860363068216079 DirichletLM
query_no Q0 50548 321 4.856926246755643 DirichletLM
query_no Q0 68501 322 4.849930112979647 DirichletLM
query_no Q0 111336 323 4.847507676788363 DirichletLM
query_no Q0 248992 324 4.84456027033477 DirichletLM
query_no Q0 65582 325 4.8430132766279925 DirichletLM
query_no Q0 33223 326 4.833563586873697 DirichletLM
query_no Q0 138601 327 4.833563586873697 DirichletLM
query_no Q0 14390 328 4.829121107040341 DirichletLM
query_no Q0 266267 329 4.826902429436383 DirichletLM
query_no Q0 584939 330 4.826902429436383 DirichletLM
query_no Q0 249448 331 4.82579373006375 DirichletLM
query_no Q0 439515 332 4.82579373006375 DirichletLM
query_no Q0 338600 333 4.824685456540704 DirichletLM
query_no Q0 231555 334 4.823577608540233 DirichletLM
query_no Q0 164822 335 4.823577608540233 DirichletLM
query_no Q0 184923 336 4.823577608540233 DirichletLM
query_no Q0 187875 337 4.823577608540233 DirichletLM
query_no Q0 188299 338 4.823577608540233 DirichletLM
query_no Q0 86625 339 4.823577608540233 DirichletLM
query_no Q0 661177 340 4.823577608540233 DirichletLM
query_no Q0 33434 341 4.823577608540233 DirichletLM
query_no Q0 132856 342 4.823577608540233 DirichletLM
query_no Q0 392793 343 4.823577608540233 DirichletLM
query_no Q0 213631 344 4.823577608540233 DirichletLM
query_no Q0 187008 345 4.823248640726302 DirichletLM
query_no Q0 682430 346 4.821363187800862 DirichletLM
query_no Q0 437441 347 4.820256614409819 DirichletLM
query_no Q0 33367 348 4.820256614409819 DirichletLM
query_no Q0 439769 349 4.81915046523707 DirichletLM
query_no Q0 307680 350 4.81915046523707 DirichletLM
query_no Q0 56674 351 4.81915046523707 DirichletLM
query_no Q0 138076 352 4.81915046523707 DirichletLM
query_no Q0 142180 353 4.81915046523707 DirichletLM
query_no Q0 33193 354 4.818044739957481 DirichletLM
query_no Q0 32932 355 4.8169394382462905 DirichletLM
query_no Q0 32770 356 4.815834559779113 DirichletLM
query_no Q0 33222 357 4.815834559779113 DirichletLM
query_no Q0 325591 358 4.815834559779113 DirichletLM
query_no Q0 435770 359 4.814730104231933 DirichletLM
query_no Q0 345375 360 4.814730104231933 DirichletLM
query_no Q0 330163 361 4.8125224606033665 DirichletLM
query_no Q0 538077 362 4.807976804420368 DirichletLM
query_no Q0 119447 363 4.807976804420368 DirichletLM
query_no Q0 183937 364 4.807010730022349 DirichletLM
query_no Q0 538879 365 4.805909646215139 DirichletLM
query_no Q0 557165 366 4.805909646215139 DirichletLM
query_no Q0 598927 367 4.805909646215139 DirichletLM
query_no Q0 639932 368 4.803708738342006 DirichletLM
query_no Q0 188323 369 4.79931195260471 DirichletLM
query_no Q0 209438 370 4.798213802227315 DirichletLM
query_no Q0 528298 371 4.797116069635883 DirichletLM
query_no Q0 183629 372 4.796018754512645 DirichletLM
query_no Q0 626270 373 4.79359832951637 DirichletLM
query_no Q0 99929 374 4.793054616793753 DirichletLM
query_no Q0 420397 375 4.78944361285587 DirichletLM
query_no Q0 437456 376 4.788349211142854 DirichletLM
query_no Q0 440211 377 4.7861616522194375 DirichletLM
query_no Q0 588011 378 4.785068494380343 DirichletLM
query_no Q0 364877 379 4.781791503588834 DirichletLM
query_no Q0 86589 380 4.781791503588834 DirichletLM
query_no Q0 140088 381 4.781791503588834 DirichletLM
query_no Q0 33390 382 4.781791503588834 DirichletLM
query_no Q0 528508 383 4.780699999856591 DirichletLM
query_no Q0 23837 384 4.780699999856591 DirichletLM
query_no Q0 142237 385 4.77851823031462 DirichletLM
query_no Q0 682406 386 4.777427963881177 DirichletLM
query_no Q0 33158 387 4.777427963881177 DirichletLM
query_no Q0 166220 388 4.774957044946431 DirichletLM
query_no Q0 598479 389 4.774469781971988 DirichletLM
query_no Q0 102660 390 4.770895002414583 DirichletLM
query_no Q0 183507 391 4.770895002414583 DirichletLM
query_no Q0 32793 392 4.768720631488942 DirichletLM
query_no Q0 646149 393 4.765961553117857 DirichletLM
query_no Q0 661131 394 4.764376799156639 DirichletLM
query_no Q0 663397 395 4.76329186209487 DirichletLM
query_no Q0 119985 396 4.761123211048191 DirichletLM
query_no Q0 523668 397 4.750304337923869 DirichletLM
query_no Q0 362806 398 4.748347872219477 DirichletLM
query_no Q0 397270 399 4.747066570520231 DirichletLM
query_no Q0 139882 400 4.740963632535334 DirichletLM
query_no Q0 142107 401 4.738450244350932 DirichletLM
query_no Q0 451155 402 4.738450244350932 DirichletLM
query_no Q0 309073 403 4.737708530086908 DirichletLM
query_no Q0 305125 404 4.737569577177177 DirichletLM
query_no Q0 50500 405 4.736589077082845 DirichletLM
query_no Q0 663354 406 4.7352257440170895 DirichletLM
query_no Q0 16710 407 4.7335982422391 DirichletLM
query_no Q0 668566 408 4.72878753365134 DirichletLM
query_no Q0 308797 409 4.723433310400767 DirichletLM
query_no Q0 389604 410 4.720225538995588 DirichletLM
query_no Q0 36505 411 4.71915707385404 DirichletLM
query_no Q0 32749 412 4.718089004220605 DirichletLM
query_no Q0 661986 413 4.715129669677662 DirichletLM
query_no Q0 466034 414 4.714353072681549 DirichletLM
query_no Q0 188673 415 4.7099579781271155 DirichletLM
query_no Q0 232063 416 4.708494127196551 DirichletLM
query_no Q0 407311 417 4.704239957488526 DirichletLM
query_no Q0 394730 418 4.700993990891654 DirichletLM
query_no Q0 449752 419 4.700160379301438 DirichletLM
query_no Q0 408467 420 4.69657532221528 DirichletLM
query_no Q0 107583 421 4.693631893768672 DirichletLM
query_no Q0 28709 422 4.693631893768672 DirichletLM
query_no Q0 395813 423 4.690457064823629 DirichletLM
query_no Q0 233289 424 4.688890908619588 DirichletLM
query_no Q0 451172 425 4.672532055086852 DirichletLM
query_no Q0 327061 426 4.672532055086852 DirichletLM
query_no Q0 619947 427 4.669380345235774 DirichletLM
query_no Q0 450980 428 4.666232074239553 DirichletLM
query_no Q0 532226 429 4.660992577463392 DirichletLM
query_no Q0 263334 430 4.655762577695835 DirichletLM
query_no Q0 125917 431 4.655593738369347 DirichletLM
query_no Q0 125839 432 4.655593738369347 DirichletLM
query_no Q0 125802 433 4.655593738369347 DirichletLM
query_no Q0 125758 434 4.655593738369347 DirichletLM
query_no Q0 126576 435 4.655593738369347 DirichletLM
query_no Q0 126554 436 4.655593738369347 DirichletLM
query_no Q0 125994 437 4.655593738369347 DirichletLM
query_no Q0 125945 438 4.655593738369347 DirichletLM
query_no Q0 126594 439 4.655593738369347 DirichletLM
query_no Q0 560868 440 4.648456467598525 DirichletLM
query_no Q0 144687 441 4.647566002802219 DirichletLM
query_no Q0 153506 442 4.647566002802219 DirichletLM
query_no Q0 174236 443 4.647566002802219 DirichletLM
query_no Q0 73088 444 4.647566002802219 DirichletLM
query_no Q0 528237 445 4.647566002802219 DirichletLM
query_no Q0 395311 446 4.64590026974184 DirichletLM
query_no Q0 661557 447 4.645851569990968 DirichletLM
query_no Q0 419269 448 4.644289838597547 DirichletLM
query_no Q0 114145 449 4.644139172115281 DirichletLM
query_no Q0 67653 450 4.637877712118992 DirichletLM
query_no Q0 163813 451 4.637877712118992 DirichletLM
query_no Q0 238408 452 4.637309833725165 DirichletLM
query_no Q0 175495 453 4.636742178773561 DirichletLM
query_no Q0 211746 454 4.636174747088414 DirichletLM
query_no Q0 213861 455 4.635607538494164 DirichletLM
query_no Q0 197979 456 4.6338995137874965 DirichletLM
query_no Q0 652437 457 4.6322089620322995 DirichletLM
query_no Q0 547831 458 4.630512671371401 DirichletLM
query_no Q0 608527 459 4.629947684075796 DirichletLM
query_no Q0 80472 460 4.628254048536871 DirichletLM
query_no Q0 87290 461 4.628254048536871 DirichletLM
query_no Q0 348888 462 4.627683231135128 DirichletLM
query_no Q0 530829 463 4.627126061739073 DirichletLM
query_no Q0 531813 464 4.626562398891157 DirichletLM
query_no Q0 491179 465 4.619415632121101 DirichletLM
query_no Q0 450183 466 4.618133776820577 DirichletLM
query_no Q0 4914 467 4.616321379726144 DirichletLM
query_no Q0 368257 468 4.616027328248626 DirichletLM
query_no Q0 155177 469 4.612541928576222 DirichletLM
query_no Q0 449373 470 4.609197193598425 DirichletLM
query_no Q0 170484 471 4.608640490893895 DirichletLM
query_no Q0 620933 472 4.608640490893895 DirichletLM
query_no Q0 483911 473 4.608640490893895 DirichletLM
query_no Q0 548294 474 4.606971670533277 DirichletLM
query_no Q0 530850 475 4.606971670533277 DirichletLM
query_no Q0 682665 476 4.606415825779381 DirichletLM
query_no Q0 357448 477 4.60638256133494 DirichletLM
query_no Q0 620985 478 4.605864482587925 DirichletLM
query_no Q0 281703 479 4.605004092655397 DirichletLM
query_no Q0 532492 480 4.603977446111288 DirichletLM
query_no Q0 595357 481 4.601976760612884 DirichletLM
query_no Q0 530469 482 4.601976760612884 DirichletLM
query_no Q0 592360 483 4.6019252482425745 DirichletLM
query_no Q0 83261 484 4.600315626242963 DirichletLM
query_no Q0 389050 485 4.5983168635540475 DirichletLM
query_no Q0 30852 486 4.592708377677446 DirichletLM
query_no Q0 237834 487 4.592708377677446 DirichletLM
query_no Q0 91644 488 4.588621422204095 DirichletLM
query_no Q0 406314 489 4.588192067160474 DirichletLM
query_no Q0 365372 490 4.581075742531692 DirichletLM
query_no Q0 553670 491 4.575625433665932 DirichletLM
query_no Q0 58797 492 4.574537838408326 DirichletLM
query_no Q0 305357 493 4.5723312443864135 DirichletLM
query_no Q0 33295 494 4.565866467203604 DirichletLM
query_no Q0 8474 495 4.561184859708535 DirichletLM
query_no Q0 183114 496 4.559162862371564 DirichletLM
query_no Q0 412516 497 4.555100036334533 DirichletLM
query_no Q0 454756 498 4.5541140595404705 DirichletLM
query_no Q0 182677 499 4.551885712596661 DirichletLM
query_no Q0 321607 500 4.546054305468165 DirichletLM
query_no Q0 40879 501 4.5454784702035225 DirichletLM
query_no Q0 447607 502 4.544042879745874 DirichletLM
query_no Q0 173514 503 4.536244788832037 DirichletLM
query_no Q0 306527 504 4.536244788832037 DirichletLM
query_no Q0 404635 505 4.536244788832037 DirichletLM
query_no Q0 287327 506 4.536244788832037 DirichletLM
query_no Q0 87628 507 4.536244788832037 DirichletLM
query_no Q0 297506 508 4.536244788832037 DirichletLM
query_no Q0 619421 509 4.536244788832037 DirichletLM
query_no Q0 208735 510 4.535670810292185 DirichletLM
query_no Q0 470373 511 4.533950243551713 DirichletLM
query_no Q0 402764 512 4.533377176993676 DirichletLM
query_no Q0 266923 513 4.533377176993676 DirichletLM
query_no Q0 16492 514 4.533377176993676 DirichletLM
query_no Q0 665991 515 4.532804337978452 DirichletLM
query_no Q0 611234 516 4.532804337978452 DirichletLM
query_no Q0 201584 517 4.531659341854153 DirichletLM
query_no Q0 616499 518 4.531659341854153 DirichletLM
query_no Q0 250345 519 4.531087184384472 DirichletLM
query_no Q0 447530 520 4.531087184384472 DirichletLM
query_no Q0 269689 521 4.531087184384472 DirichletLM
query_no Q0 507991 522 4.531087184384472 DirichletLM
query_no Q0 243468 523 4.531087184384472 DirichletLM
query_no Q0 357881 524 4.5299435497301435 DirichletLM
query_no Q0 411718 525 4.5299435497301435 DirichletLM
query_no Q0 97998 526 4.528800820925141 DirichletLM
query_no Q0 233454 527 4.528800820925141 DirichletLM
query_no Q0 443537 528 4.528800820925141 DirichletLM
query_no Q0 142497 529 4.528800820925141 DirichletLM
query_no Q0 1754 530 4.527088423049454 DirichletLM
query_no Q0 493359 531 4.520653890319999 DirichletLM
query_no Q0 310931 532 4.516470646966028 DirichletLM
query_no Q0 34004 533 4.51503368674918 DirichletLM
query_no Q0 580860 534 4.512049314738485 DirichletLM
query_no Q0 8737 535 4.509055218661817 DirichletLM
query_no Q0 664844 536 4.5070822105995 DirichletLM
query_no Q0 39207 537 4.503068223091952 DirichletLM
query_no Q0 413096 538 4.50244108706197 DirichletLM
query_no Q0 95247 539 4.502364883055274 DirichletLM
query_no Q0 112709 540 4.49823995014149 DirichletLM
query_no Q0 297028 541 4.492136078670232 DirichletLM
query_no Q0 679181 542 4.476871794054945 DirichletLM
query_no Q0 433194 543 4.474437652447708 DirichletLM
query_no Q0 34910 544 4.467489498367658 DirichletLM
query_no Q0 18605 545 4.459344425685044 DirichletLM
query_no Q0 210738 546 4.457875866631325 DirichletLM
query_no Q0 46821 547 4.457311745022058 DirichletLM
query_no Q0 623737 548 4.446190166898663 DirichletLM
query_no Q0 441596 549 4.439395300655911 DirichletLM
query_no Q0 647261 550 4.4276617517865455 DirichletLM
query_no Q0 16157 551 4.422959795875772 DirichletLM
query_no Q0 98848 552 4.418143586976255 DirichletLM
query_no Q0 239350 553 4.410951004823751 DirichletLM
query_no Q0 533166 554 4.406954619030064 DirichletLM
query_no Q0 646954 555 4.405367336302028 DirichletLM
query_no Q0 271493 556 4.404598276924681 DirichletLM
query_no Q0 492566 557 4.4037430076830475 DirichletLM
query_no Q0 161434 558 4.391560788428608 DirichletLM
query_no Q0 41072 559 4.387202548613691 DirichletLM
query_no Q0 206380 560 4.386063925560616 DirichletLM
query_no Q0 121900 561 4.3751812481991506 DirichletLM
query_no Q0 544480 562 4.36830430313826 DirichletLM
query_no Q0 131090 563 4.368277218047413 DirichletLM
query_no Q0 263978 564 4.36601067020208 DirichletLM
query_no Q0 344173 565 4.364467553520978 DirichletLM
query_no Q0 439375 566 4.360284551867599 DirichletLM
query_no Q0 603009 567 4.355499111296487 DirichletLM
query_no Q0 383415 568 4.3534281761698335 DirichletLM
query_no Q0 632047 569 4.3486419596826735 DirichletLM
query_no Q0 662785 570 4.346588054242421 DirichletLM
query_no Q0 163295 571 4.3454496087426335 DirichletLM
query_no Q0 456607 572 4.342036964841827 DirichletLM
query_no Q0 223974 573 4.342036964841827 DirichletLM
query_no Q0 452641 574 4.3309306772885 DirichletLM
query_no Q0 38843 575 4.329063715022279 DirichletLM
query_no Q0 159578 576 4.322344551590084 DirichletLM
query_no Q0 623625 577 4.316028694097372 DirichletLM
query_no Q0 406936 578 4.315735368825511 DirichletLM
query_no Q0 336730 579 4.308130698279433 DirichletLM
query_no Q0 239980 580 4.307007322722406 DirichletLM
query_no Q0 491161 581 4.296284654691848 DirichletLM
query_no Q0 508824 582 4.295797556945611 DirichletLM
query_no Q0 544847 583 4.277952026033553 DirichletLM
query_no Q0 508328 584 4.273609283959222 DirichletLM
query_no Q0 314923 585 4.272397856692406 DirichletLM
query_no Q0 439340 586 4.271410448215403 DirichletLM
query_no Q0 407229 587 4.269070479715815 DirichletLM
query_no Q0 667331 588 4.267602608557806 DirichletLM
query_no Q0 101920 589 4.26574693538777 DirichletLM
query_no Q0 453338 590 4.265265471684077 DirichletLM
query_no Q0 601434 591 4.2635333640618835 DirichletLM
query_no Q0 552811 592 4.2635333640618835 DirichletLM
query_no Q0 97025 593 4.259290584829976 DirichletLM
query_no Q0 385487 594 4.253593254427969 DirichletLM
query_no Q0 174267 595 4.2239767495086555 DirichletLM
query_no Q0 478340 596 4.195741619374207 DirichletLM
query_no Q0 512031 597 4.163154540247624 DirichletLM
query_no Q0 578293 598 4.154965625374046 DirichletLM
query_no Q0 15555 599 4.150706746251351 DirichletLM
query_no Q0 512216 600 4.1307390078733235 DirichletLM
query_no Q0 85797 601 4.123790345825204 DirichletLM
query_no Q0 193446 602 4.123407476672933 DirichletLM
query_no Q0 525946 603 4.120016446872489 DirichletLM
query_no Q0 390860 604 4.101130189817493 DirichletLM
query_no Q0 308978 605 4.096764952359254 DirichletLM
query_no Q0 461920 606 4.096572287549929 DirichletLM
query_no Q0 615728 607 4.096572287549929 DirichletLM
query_no Q0 461450 608 4.096572287549929 DirichletLM
query_no Q0 457560 609 4.096572287549929 DirichletLM
query_no Q0 259161 610 4.096572287549929 DirichletLM
query_no Q0 578548 611 4.096572287549929 DirichletLM
query_no Q0 309557 612 4.096572287549929 DirichletLM
query_no Q0 264146 613 4.093704675711568 DirichletLM
query_no Q0 357832 614 4.093131836696344 DirichletLM
query_no Q0 357381 615 4.093131836696344 DirichletLM
query_no Q0 204808 616 4.093131836696344 DirichletLM
query_no Q0 150966 617 4.091986840572045 DirichletLM
query_no Q0 12985 618 4.091986840572045 DirichletLM
query_no Q0 660163 619 4.091414683102364 DirichletLM
query_no Q0 59242 620 4.091414683102364 DirichletLM
query_no Q0 95908 621 4.091414683102364 DirichletLM
query_no Q0 534055 622 4.091414683102364 DirichletLM
query_no Q0 324218 623 4.091414683102364 DirichletLM
query_no Q0 8062 624 4.090271048448035 DirichletLM
query_no Q0 167308 625 4.090271048448035 DirichletLM
query_no Q0 331197 626 4.090271048448035 DirichletLM
query_no Q0 35629 627 4.090271048448035 DirichletLM
query_no Q0 549449 628 4.090271048448035 DirichletLM
query_no Q0 33478 629 4.089128319643033 DirichletLM
query_no Q0 13164 630 4.089128319643033 DirichletLM
query_no Q0 71285 631 4.089128319643033 DirichletLM
query_no Q0 637306 632 4.087986495253482 DirichletLM
query_no Q0 279701 633 4.087415921767346 DirichletLM
query_no Q0 124206 634 4.087415921767346 DirichletLM
query_no Q0 208262 635 4.085705554002243 DirichletLM
query_no Q0 305132 636 4.0805865833772295 DirichletLM
query_no Q0 551974 637 4.078213613830665 DirichletLM
query_no Q0 143049 638 4.075485711684364 DirichletLM
query_no Q0 83973 639 4.075485711684364 DirichletLM
query_no Q0 171642 640 4.074920059828112 DirichletLM
query_no Q0 478478 641 4.061660595571656 DirichletLM
query_no Q0 11735 642 4.0534195615317286 DirichletLM
query_no Q0 85758 643 4.039054147383196 DirichletLM
query_no Q0 50008 644 4.026797604712545 DirichletLM
query_no Q0 517758 645 4.026797604712545 DirichletLM
query_no Q0 366042 646 4.022715236429197 DirichletLM
query_no Q0 680552 647 4.0023849232543185 DirichletLM
query_no Q0 336844 648 3.9994498206518245 DirichletLM
query_no Q0 555994 649 3.9770820076233697 DirichletLM
query_no Q0 440161 650 3.974279429534226 DirichletLM
query_no Q0 671905 651 3.9395445269522718 DirichletLM
query_no Q0 17031 652 3.939461336688257 DirichletLM
query_no Q0 39636 653 3.898226751491415 DirichletLM
query_no Q0 168415 654 3.894414349953535 DirichletLM
query_no Q0 121917 655 3.884611808419202 DirichletLM
query_no Q0 360514 656 3.8805485679102576 DirichletLM
query_no Q0 680707 657 3.838413782194381 DirichletLM
query_no Q0 615810 658 3.8307855158034125 DirichletLM
query_no Q0 140420 659 3.6786924777015737 DirichletLM
query_no Q0 186566 660 3.6732772929745896 DirichletLM
query_no Q0 2536 661 3.6224148612176728 DirichletLM
query_no Q0 603946 662 3.6155765405090428 DirichletLM
query_no Q0 48446 663 3.5927976491371205 DirichletLM
query_no Q0 567120 664 3.5927976491371205 DirichletLM
query_no Q0 150449 665 3.5927976491371205 DirichletLM
query_no Q0 579557 666 3.5927976491371205 DirichletLM
query_no Q0 376125 667 3.5927976491371205 DirichletLM
query_no Q0 376776 668 3.5927976491371205 DirichletLM
query_no Q0 352387 669 3.5927976491371205 DirichletLM
query_no Q0 173338 670 3.5927976491371205 DirichletLM
query_no Q0 376753 671 3.5927976491371205 DirichletLM
query_no Q0 516293 672 3.5927976491371205 DirichletLM
query_no Q0 371087 673 3.5927976491371205 DirichletLM
query_no Q0 115273 674 3.5927976491371205 DirichletLM
query_no Q0 166820 675 3.5927976491371205 DirichletLM
query_no Q0 348131 676 3.5927976491371205 DirichletLM
query_no Q0 599691 677 3.5927976491371205 DirichletLM
query_no Q0 599661 678 3.5927976491371205 DirichletLM
query_no Q0 516084 679 3.5927976491371205 DirichletLM
query_no Q0 333930 680 3.5927976491371205 DirichletLM
query_no Q0 599718 681 3.5927976491371205 DirichletLM
query_no Q0 575668 682 3.5927976491371205 DirichletLM
query_no Q0 576169 683 3.5927976491371205 DirichletLM
query_no Q0 134241 684 3.5927976491371205 DirichletLM
query_no Q0 582524 685 3.5927976491371205 DirichletLM
query_no Q0 313969 686 3.5927976491371205 DirichletLM
query_no Q0 352354 687 3.5927976491371205 DirichletLM
query_no Q0 557739 688 3.5927976491371205 DirichletLM
query_no Q0 127361 689 3.5927976491371205 DirichletLM
query_no Q0 602819 690 3.5927976491371205 DirichletLM
query_no Q0 445427 691 3.5927976491371205 DirichletLM
query_no Q0 89190 692 3.5927976491371205 DirichletLM
query_no Q0 193154 693 3.5927976491371205 DirichletLM
query_no Q0 580179 694 3.5927976491371205 DirichletLM
query_no Q0 352403 695 3.5927976491371205 DirichletLM
query_no Q0 106105 696 3.5922252646658595 DirichletLM
query_no Q0 520573 697 3.5922252646658595 DirichletLM
query_no Q0 376181 698 3.5922252646658595 DirichletLM
query_no Q0 249201 699 3.5922252646658595 DirichletLM
query_no Q0 376227 700 3.5922252646658595 DirichletLM
query_no Q0 348398 701 3.5922252646658595 DirichletLM
query_no Q0 580200 702 3.5922252646658595 DirichletLM
query_no Q0 151758 703 3.5922252646658595 DirichletLM
query_no Q0 557769 704 3.5922252646658595 DirichletLM
query_no Q0 403802 705 3.5922252646658595 DirichletLM
query_no Q0 582605 706 3.5922252646658595 DirichletLM
query_no Q0 519308 707 3.5922252646658595 DirichletLM
query_no Q0 352364 708 3.5922252646658595 DirichletLM
query_no Q0 556088 709 3.5922252646658595 DirichletLM
query_no Q0 580163 710 3.5922252646658595 DirichletLM
query_no Q0 602780 711 3.5922252646658595 DirichletLM
query_no Q0 376157 712 3.5922252646658595 DirichletLM
query_no Q0 256086 713 3.5922252646658595 DirichletLM
query_no Q0 48018 714 3.5922252646658595 DirichletLM
query_no Q0 580977 715 3.5922252646658595 DirichletLM
query_no Q0 583249 716 3.5922252646658595 DirichletLM
query_no Q0 348447 717 3.5922252646658595 DirichletLM
query_no Q0 580901 718 3.5922252646658595 DirichletLM
query_no Q0 566162 719 3.5922252646658595 DirichletLM
query_no Q0 375942 720 3.5922252646658595 DirichletLM
query_no Q0 206501 721 3.5922252646658595 DirichletLM
query_no Q0 493205 722 3.5922252646658595 DirichletLM
query_no Q0 403781 723 3.5922252646658595 DirichletLM
query_no Q0 582590 724 3.5922252646658595 DirichletLM
query_no Q0 580852 725 3.5922252646658595 DirichletLM
query_no Q0 347974 726 3.5922252646658595 DirichletLM
query_no Q0 582565 727 3.5922252646658595 DirichletLM
query_no Q0 601034 728 3.5922252646658595 DirichletLM
query_no Q0 583222 729 3.5922252646658595 DirichletLM
query_no Q0 521093 730 3.5922252646658595 DirichletLM
query_no Q0 576977 731 3.5922252646658595 DirichletLM
query_no Q0 602799 732 3.5922252646658595 DirichletLM
query_no Q0 168716 733 3.5922252646658595 DirichletLM
query_no Q0 286399 734 3.5922252646658595 DirichletLM
query_no Q0 371109 735 3.5922252646658595 DirichletLM
query_no Q0 348151 736 3.5922252646658595 DirichletLM
query_no Q0 319556 737 3.5922252646658595 DirichletLM
query_no Q0 348840 738 3.5922252646658595 DirichletLM
query_no Q0 348160 739 3.5922252646658595 DirichletLM
query_no Q0 602738 740 3.5922252646658595 DirichletLM
query_no Q0 371125 741 3.5922252646658595 DirichletLM
query_no Q0 214649 742 3.5922252646658595 DirichletLM
query_no Q0 348378 743 3.5922252646658595 DirichletLM
query_no Q0 202133 744 3.5922252646658595 DirichletLM
query_no Q0 580144 745 3.5922252646658595 DirichletLM
query_no Q0 375902 746 3.5922252646658595 DirichletLM
query_no Q0 65490 747 3.5922252646658595 DirichletLM
query_no Q0 375364 748 3.5922252646658595 DirichletLM
query_no Q0 583295 749 3.5922252646658595 DirichletLM
query_no Q0 351281 750 3.5922252646658595 DirichletLM
query_no Q0 376723 751 3.5922252646658595 DirichletLM
query_no Q0 352420 752 3.5922252646658595 DirichletLM
query_no Q0 602757 753 3.5922252646658595 DirichletLM
query_no Q0 530925 754 3.5922252646658595 DirichletLM
query_no Q0 348335 755 3.5922252646658595 DirichletLM
query_no Q0 575614 756 3.5922252646658595 DirichletLM
query_no Q0 85862 757 3.5922252646658595 DirichletLM
query_no Q0 293220 758 3.5922252646658595 DirichletLM
query_no Q0 581090 759 3.5922252646658595 DirichletLM
query_no Q0 15575 760 3.5922252646658595 DirichletLM
query_no Q0 376134 761 3.5922252646658595 DirichletLM
query_no Q0 497502 762 3.5922252646658595 DirichletLM
query_no Q0 580240 763 3.5922252646658595 DirichletLM
query_no Q0 580953 764 3.5922252646658595 DirichletLM
query_no Q0 352685 765 3.5922252646658595 DirichletLM
query_no Q0 577000 766 3.5922252646658595 DirichletLM
query_no Q0 394813 767 3.5922252646658595 DirichletLM
query_no Q0 534114 768 3.5922252646658595 DirichletLM
query_no Q0 582546 769 3.5922252646658595 DirichletLM
query_no Q0 375382 770 3.5922252646658595 DirichletLM
query_no Q0 583272 771 3.5922252646658595 DirichletLM
query_no Q0 298355 772 3.5922252646658595 DirichletLM
query_no Q0 294624 773 3.5922252646658595 DirichletLM
query_no Q0 299153 774 3.5922252646658595 DirichletLM
query_no Q0 599740 775 3.5922252646658595 DirichletLM
query_no Q0 553928 776 3.5922252646658595 DirichletLM
query_no Q0 348304 777 3.5922252646658595 DirichletLM
query_no Q0 211438 778 3.5922252646658595 DirichletLM
query_no Q0 283885 779 3.5922252646658595 DirichletLM
query_no Q0 376203 780 3.5922252646658595 DirichletLM
query_no Q0 650678 781 3.5922252646658595 DirichletLM
query_no Q0 599770 782 3.5922252646658595 DirichletLM
query_no Q0 575643 783 3.5922252646658595 DirichletLM
query_no Q0 613916 784 3.5922252646658595 DirichletLM
query_no Q0 580221 785 3.5922252646658595 DirichletLM
query_no Q0 575580 786 3.5922252646658595 DirichletLM
query_no Q0 435902 787 3.5922252646658595 DirichletLM
query_no Q0 470178 788 3.5922252646658595 DirichletLM
query_no Q0 555697 789 3.5922252646658595 DirichletLM
query_no Q0 583200 790 3.5922252646658595 DirichletLM
query_no Q0 317237 791 3.5922252646658595 DirichletLM
query_no Q0 580927 792 3.5922252646658595 DirichletLM
query_no Q0 41931 793 3.5922252646658595 DirichletLM
query_no Q0 372183 794 3.5922252646658595 DirichletLM
query_no Q0 175225 795 3.5922252646658595 DirichletLM
query_no Q0 236745 796 3.5922252646658595 DirichletLM
query_no Q0 395040 797 3.5922252646658595 DirichletLM
query_no Q0 441517 798 3.5916531071961795 DirichletLM
query_no Q0 679818 799 3.5916531071961795 DirichletLM
query_no Q0 290400 800 3.5916531071961795 DirichletLM
query_no Q0 575551 801 3.5916531071961795 DirichletLM
query_no Q0 650986 802 3.5916531071961795 DirichletLM
query_no Q0 677057 803 3.5916531071961795 DirichletLM
query_no Q0 586445 804 3.5916531071961795 DirichletLM
query_no Q0 647319 805 3.5916531071961795 DirichletLM
query_no Q0 604650 806 3.5916531071961795 DirichletLM
query_no Q0 105085 807 3.5916531071961795 DirichletLM
query_no Q0 576199 808 3.5916531071961795 DirichletLM
query_no Q0 219414 809 3.5916531071961795 DirichletLM
query_no Q0 348357 810 3.5916531071961795 DirichletLM
query_no Q0 171975 811 3.5916531071961795 DirichletLM
query_no Q0 348423 812 3.5916531071961795 DirichletLM
query_no Q0 555728 813 3.5916531071961795 DirichletLM
query_no Q0 682083 814 3.5916531071961795 DirichletLM
query_no Q0 557709 815 3.5916531071961795 DirichletLM
query_no Q0 127715 816 3.5916531071961795 DirichletLM
query_no Q0 298492 817 3.5916531071961795 DirichletLM
query_no Q0 577025 818 3.5916531071961795 DirichletLM
query_no Q0 389369 819 3.5916531071961795 DirichletLM
query_no Q0 136354 820 3.5916531071961795 DirichletLM
query_no Q0 455987 821 3.5910811765480988 DirichletLM
query_no Q0 246337 822 3.5910811765480988 DirichletLM
query_no Q0 259544 823 3.5910811765480988 DirichletLM
query_no Q0 18865 824 3.5910811765480988 DirichletLM
query_no Q0 672291 825 3.5910811765480988 DirichletLM
query_no Q0 176433 826 3.5910811765480988 DirichletLM
query_no Q0 94893 827 3.5905094725418505 DirichletLM
query_no Q0 36564 828 3.5905094725418505 DirichletLM
query_no Q0 283671 829 3.5905094725418505 DirichletLM
query_no Q0 267050 830 3.5905094725418505 DirichletLM
query_no Q0 643306 831 3.5882249193472964 DirichletLM
query_no Q0 299354 832 3.5882249193472964 DirichletLM
query_no Q0 316492 833 3.5882249193472964 DirichletLM
query_no Q0 328433 834 3.5882249193472964 DirichletLM
query_no Q0 300423 835 3.5882249193472964 DirichletLM
query_no Q0 662582 836 3.5882249193472964 DirichletLM
query_no Q0 402041 837 3.5882249193472964 DirichletLM
query_no Q0 419542 838 3.5882249193472964 DirichletLM
query_no Q0 418522 839 3.5882249193472964 DirichletLM
query_no Q0 395316 840 3.5882249193472964 DirichletLM
query_no Q0 645902 841 3.5882249193472964 DirichletLM
query_no Q0 391413 842 3.5882249193472964 DirichletLM
query_no Q0 399930 843 3.5882249193472964 DirichletLM
query_no Q0 218548 844 3.5882249193472964 DirichletLM
query_no Q0 640424 845 3.5882249193472964 DirichletLM
query_no Q0 443943 846 3.5876543458611607 DirichletLM
query_no Q0 437394 847 3.5876543458611607 DirichletLM
query_no Q0 360409 848 3.5876543458611607 DirichletLM
query_no Q0 543300 849 3.585943978096058 DirichletLM
query_no Q0 356626 850 3.5857239519706483 DirichletLM
query_no Q0 445471 851 3.58309786346046 DirichletLM
query_no Q0 187829 852 3.515846418132293 DirichletLM
query_no Q0 143046 853 3.394568632006186 DirichletLM
query_no Q0 250232 854 3.356730290903596 DirichletLM
query_no Q0 343262 855 3.2783678624589023 DirichletLM
query_no Q0 185073 856 3.1938518928785458 DirichletLM
query_no Q0 398171 857 3.1746772069151397 DirichletLM
query_no Q0 614932 858 3.1746772069151397 DirichletLM
query_no Q0 119701 859 3.174104595262102 DirichletLM
query_no Q0 269323 860 3.174104595262102 DirichletLM
query_no Q0 621465 861 3.174104595262102 DirichletLM
query_no Q0 682930 862 3.174104595262102 DirichletLM
query_no Q0 81439 863 3.174104595262102 DirichletLM
query_no Q0 500594 864 3.174104595262102 DirichletLM
query_no Q0 191334 865 3.174104595262102 DirichletLM
query_no Q0 560196 866 3.174104595262102 DirichletLM
query_no Q0 626256 867 3.174104595262102 DirichletLM
query_no Q0 239060 868 3.174104595262102 DirichletLM
query_no Q0 490266 869 3.174104595262102 DirichletLM
query_no Q0 173851 870 3.174104595262102 DirichletLM
query_no Q0 80907 871 3.174104595262102 DirichletLM
query_no Q0 428096 872 3.174104595262102 DirichletLM
query_no Q0 160355 873 3.174104595262102 DirichletLM
query_no Q0 124845 874 3.174104595262102 DirichletLM
query_no Q0 550993 875 3.174104595262102 DirichletLM
query_no Q0 496600 876 3.174104595262102 DirichletLM
query_no Q0 645182 877 3.174104595262102 DirichletLM
query_no Q0 154404 878 3.174104595262102 DirichletLM
query_no Q0 473174 879 3.174104595262102 DirichletLM
query_no Q0 54950 880 3.174104595262102 DirichletLM
query_no Q0 297925 881 3.174104595262102 DirichletLM
query_no Q0 40638 882 3.174104595262102 DirichletLM
query_no Q0 44635 883 3.174104595262102 DirichletLM
query_no Q0 39456 884 3.174104595262102 DirichletLM
query_no Q0 517333 885 3.174104595262102 DirichletLM
query_no Q0 659875 886 3.174104595262102 DirichletLM
query_no Q0 77536 887 3.174104595262102 DirichletLM
query_no Q0 60292 888 3.174104595262102 DirichletLM
query_no Q0 206738 889 3.174104595262102 DirichletLM
query_no Q0 506105 890 3.174104595262102 DirichletLM
query_no Q0 623699 891 3.174104595262102 DirichletLM
query_no Q0 283715 892 3.174104595262102 DirichletLM
query_no Q0 284403 893 3.174104595262102 DirichletLM
query_no Q0 7375 894 3.173532210790841 DirichletLM
query_no Q0 552196 895 3.173532210790841 DirichletLM
query_no Q0 439621 896 3.173532210790841 DirichletLM
query_no Q0 59991 897 3.173532210790841 DirichletLM
query_no Q0 54146 898 3.173532210790841 DirichletLM
query_no Q0 624603 899 3.173532210790841 DirichletLM
query_no Q0 604871 900 3.173532210790841 DirichletLM
query_no Q0 682376 901 3.173532210790841 DirichletLM
query_no Q0 78066 902 3.173532210790841 DirichletLM
query_no Q0 547080 903 3.173532210790841 DirichletLM
query_no Q0 506079 904 3.173532210790841 DirichletLM
query_no Q0 137806 905 3.173532210790841 DirichletLM
query_no Q0 555305 906 3.173532210790841 DirichletLM
query_no Q0 585949 907 3.173532210790841 DirichletLM
query_no Q0 682299 908 3.173532210790841 DirichletLM
query_no Q0 329255 909 3.173532210790841 DirichletLM
query_no Q0 657853 910 3.173532210790841 DirichletLM
query_no Q0 40975 911 3.173532210790841 DirichletLM
query_no Q0 57043 912 3.173532210790841 DirichletLM
query_no Q0 536238 913 3.173532210790841 DirichletLM
query_no Q0 337404 914 3.173532210790841 DirichletLM
query_no Q0 60770 915 3.173532210790841 DirichletLM
query_no Q0 676490 916 3.173532210790841 DirichletLM
query_no Q0 607707 917 3.173532210790841 DirichletLM
query_no Q0 608239 918 3.173532210790841 DirichletLM
query_no Q0 645897 919 3.173532210790841 DirichletLM
query_no Q0 502120 920 3.173532210790841 DirichletLM
query_no Q0 54201 921 3.173532210790841 DirichletLM
query_no Q0 626166 922 3.173532210790841 DirichletLM
query_no Q0 507805 923 3.173532210790841 DirichletLM
query_no Q0 507120 924 3.173532210790841 DirichletLM
query_no Q0 683163 925 3.173532210790841 DirichletLM
query_no Q0 367139 926 3.173532210790841 DirichletLM
query_no Q0 54927 927 3.173532210790841 DirichletLM
query_no Q0 407497 928 3.173532210790841 DirichletLM
query_no Q0 79398 929 3.173532210790841 DirichletLM
query_no Q0 58358 930 3.173532210790841 DirichletLM
query_no Q0 129366 931 3.173532210790841 DirichletLM
query_no Q0 39184 932 3.173532210790841 DirichletLM
query_no Q0 646114 933 3.173532210790841 DirichletLM
query_no Q0 40933 934 3.173532210790841 DirichletLM
query_no Q0 80885 935 3.173532210790841 DirichletLM
query_no Q0 257414 936 3.173532210790841 DirichletLM
query_no Q0 585812 937 3.173532210790841 DirichletLM
query_no Q0 682332 938 3.173532210790841 DirichletLM
query_no Q0 62144 939 3.173532210790841 DirichletLM
query_no Q0 662581 940 3.173532210790841 DirichletLM
query_no Q0 142247 941 3.173532210790841 DirichletLM
query_no Q0 507887 942 3.173532210790841 DirichletLM
query_no Q0 663672 943 3.173532210790841 DirichletLM
query_no Q0 624654 944 3.173532210790841 DirichletLM
query_no Q0 20982 945 3.173532210790841 DirichletLM
query_no Q0 606545 946 3.173532210790841 DirichletLM
query_no Q0 370186 947 3.173532210790841 DirichletLM
query_no Q0 604789 948 3.173532210790841 DirichletLM
query_no Q0 66173 949 3.173532210790841 DirichletLM
query_no Q0 369932 950 3.173532210790841 DirichletLM
query_no Q0 527457 951 3.173532210790841 DirichletLM
query_no Q0 607018 952 3.173532210790841 DirichletLM
query_no Q0 641869 953 3.173532210790841 DirichletLM
query_no Q0 624688 954 3.173532210790841 DirichletLM
query_no Q0 628222 955 3.173532210790841 DirichletLM
query_no Q0 601793 956 3.173532210790841 DirichletLM
query_no Q0 58307 957 3.173532210790841 DirichletLM
query_no Q0 490664 958 3.173532210790841 DirichletLM
query_no Q0 607697 959 3.173532210790841 DirichletLM
query_no Q0 605650 960 3.173532210790841 DirichletLM
query_no Q0 57609 961 3.173532210790841 DirichletLM
query_no Q0 39293 962 3.173532210790841 DirichletLM
query_no Q0 373283 963 3.173532210790841 DirichletLM
query_no Q0 142243 964 3.173532210790841 DirichletLM
query_no Q0 607727 965 3.173532210790841 DirichletLM
query_no Q0 313249 966 3.173532210790841 DirichletLM
query_no Q0 62123 967 3.173532210790841 DirichletLM
query_no Q0 623036 968 3.173532210790841 DirichletLM
query_no Q0 78792 969 3.173532210790841 DirichletLM
query_no Q0 80795 970 3.173532210790841 DirichletLM
query_no Q0 626353 971 3.173532210790841 DirichletLM
query_no Q0 78789 972 3.173532210790841 DirichletLM
query_no Q0 508803 973 3.173532210790841 DirichletLM
query_no Q0 643748 974 3.173532210790841 DirichletLM
query_no Q0 503259 975 3.173532210790841 DirichletLM
query_no Q0 6648 976 3.173532210790841 DirichletLM
query_no Q0 36656 977 3.173532210790841 DirichletLM
query_no Q0 682452 978 3.173532210790841 DirichletLM
query_no Q0 135427 979 3.173532210790841 DirichletLM
query_no Q0 681491 980 3.173532210790841 DirichletLM
query_no Q0 58277 981 3.173532210790841 DirichletLM
query_no Q0 293545 982 3.173532210790841 DirichletLM
query_no Q0 506062 983 3.173532210790841 DirichletLM
query_no Q0 683239 984 3.173532210790841 DirichletLM
query_no Q0 498956 985 3.173532210790841 DirichletLM
query_no Q0 604962 986 3.173532210790841 DirichletLM
query_no Q0 642060 987 3.173532210790841 DirichletLM
query_no Q0 662609 988 3.173532210790841 DirichletLM
query_no Q0 57026 989 3.173532210790841 DirichletLM
query_no Q0 644400 990 3.173532210790841 DirichletLM
query_no Q0 681624 991 3.173532210790841 DirichletLM
query_no Q0 58754 992 3.173532210790841 DirichletLM
query_no Q0 131400 993 3.173532210790841 DirichletLM
query_no Q0 54090 994 3.173532210790841 DirichletLM
query_no Q0 682999 995 3.173532210790841 DirichletLM
query_no Q0 578969 996 3.173532210790841 DirichletLM
query_no Q0 58772 997 3.173532210790841 DirichletLM
query_no Q0 39260 998 3.173532210790841 DirichletLM
query_no Q0 1059 999 3.173532210790841 DirichletLM
